<?xml version="1.0" encoding="UTF-8" standalone="no"?>
<!-- Created with Inkscape (http://www.inkscape.org/) -->

<svg
   xmlns:dc="http://purl.org/dc/elements/1.1/"
   xmlns:cc="http://creativecommons.org/ns#"
   xmlns:rdf="http://www.w3.org/1999/02/22-rdf-syntax-ns#"
   xmlns:svg="http://www.w3.org/2000/svg"
   xmlns="http://www.w3.org/2000/svg"
   xmlns:sodipodi="http://sodipodi.sourceforge.net/DTD/sodipodi-0.dtd"
   xmlns:inkscape="http://www.inkscape.org/namespaces/inkscape"
   width="157.45741mm"
   height="20.608562mm"
   viewBox="0 0 157.45741 20.608562"
   version="1.1"
   id="svg1841"
   inkscape:version="0.92.1 r15371"
   sodipodi:docname="train.svg">
  <defs
     id="defs1835" />
  <sodipodi:namedview
     id="base"
     pagecolor="#ffffff"
     bordercolor="#666666"
     borderopacity="1.0"
     inkscape:pageopacity="0.0"
     inkscape:pageshadow="2"
     inkscape:zoom="1.4"
     inkscape:cx="323.28302"
     inkscape:cy="-81.099734"
     inkscape:document-units="mm"
     inkscape:current-layer="layer1"
     showgrid="false"
     inkscape:window-width="1280"
     inkscape:window-height="691"
     inkscape:window-x="0"
     inkscape:window-y="31"
     inkscape:window-maximized="1"
     fit-margin-top="0"
     fit-margin-left="0"
     fit-margin-right="0"
     fit-margin-bottom="0" />
  <metadata
     id="metadata1838">
    <rdf:RDF>
      <cc:Work
         rdf:about="">
        <dc:format>image/svg+xml</dc:format>
        <dc:type
           rdf:resource="http://purl.org/dc/dcmitype/StillImage" />
        <dc:title></dc:title>
      </cc:Work>
    </rdf:RDF>
  </metadata>
  <g
     inkscape:label="Layer 1"
     inkscape:groupmode="layer"
     id="layer1"
     transform="translate(-1.8546391,-1.4060836)">
    <path
       inkscape:connector-curvature="0"
       id="path665"
       d="M 75.36885,17.110206 V 1.4529356 h 69.03972 c 4.05143,0 7.94163,1.711523 10.58471,4.7817944 0.0882,0.101974 0.17501,0.205327 0.2632,0.311436 3.4892,4.244357 3.96049,7.828636 3.96049,7.828636 0,0 0.0951,2.735404 -11.78912,2.735404 z m 0,0"
       style="fill:#e6e6e6;fill-opacity:1;fill-rule:nonzero;stroke:none;stroke-width:0.35277778" />
    <path
       inkscape:connector-curvature="0"
       id="path667"
       d="M 154.93402,5.992195 C 152.29095,3.1699726 148.42968,1.4060836 144.40857,1.4060836 H 75.36609 V 5.992195 Z m 0,0"
       style="fill:#f5c228;fill-opacity:1;fill-rule:nonzero;stroke:none;stroke-width:0.35277778" />
    <path
       inkscape:connector-curvature="0"
       id="path669"
       d="m 87.849738,19.185534 c 0,1.457964 1.18236,2.64032 2.6417,2.64032 1.45797,0 2.64033,-1.182356 2.64033,-2.64032 0,-1.457967 -1.18236,-2.641699 -2.64033,-2.641699 -1.45934,0 -2.6417,1.183732 -2.6417,2.641699"
       style="fill:#232323;fill-opacity:1;fill-rule:nonzero;stroke:none;stroke-width:0.35277778" />
    <path
       inkscape:connector-curvature="0"
       id="path671"
       d="m 81.058768,19.185534 c 0,1.457964 1.18236,2.64032 2.6417,2.64032 1.45796,0 2.64032,-1.182356 2.64032,-2.64032 0,-1.457967 -1.18236,-2.641699 -2.64032,-2.641699 -1.45934,0 -2.6417,1.183732 -2.6417,2.641699"
       style="fill:#232323;fill-opacity:1;fill-rule:nonzero;stroke:none;stroke-width:0.35277778" />
    <path
       inkscape:connector-curvature="0"
       id="path673"
       d="m 135.57534,19.185534 c 0,1.457964 1.18236,2.64032 2.64032,2.64032 1.45934,0 2.6417,-1.182356 2.6417,-2.64032 0,-1.457967 -1.18236,-2.641699 -2.6417,-2.641699 -1.45796,0 -2.64032,1.183732 -2.64032,2.641699"
       style="fill:#232323;fill-opacity:1;fill-rule:nonzero;stroke:none;stroke-width:0.35277778" />
    <path
       inkscape:connector-curvature="0"
       id="path675"
       d="m 128.78437,19.185534 c 0,1.457964 1.18236,2.64032 2.64032,2.64032 1.45934,0 2.6417,-1.182356 2.6417,-2.64032 0,-1.457967 -1.18236,-2.641699 -2.6417,-2.641699 -1.45796,0 -2.64032,1.183732 -2.64032,2.641699"
       style="fill:#232323;fill-opacity:1;fill-rule:nonzero;stroke:none;stroke-width:0.35277778" />
    <path
       inkscape:connector-curvature="0"
       id="path677"
       d="m 73.82407,15.435891 1.54478,2.262738 V 2.8943646 L 73.82407,5.36243 Z m 0,0"
       style="fill:#232323;fill-opacity:1;fill-rule:nonzero;stroke:none;stroke-width:0.35277778" />
    <path
       inkscape:connector-curvature="0"
       id="path679"
       d="m 87.153828,11.436823 h 5.14973 V 7.301332 h -5.14973 z m 0,0"
       style="fill:#306e7f;fill-opacity:1;fill-rule:nonzero;stroke:none;stroke-width:0.35277778" />
    <path
       inkscape:connector-curvature="0"
       id="path681"
       d="m 94.909428,11.436823 h 5.149732 V 7.301332 h -5.149732 z m 0,0"
       style="fill:#306e7f;fill-opacity:1;fill-rule:nonzero;stroke:none;stroke-width:0.35277778" />
    <path
       inkscape:connector-curvature="0"
       id="path683"
       d="m 102.66641,11.436823 h 5.14835 V 7.301332 h -5.14835 z m 0,0"
       style="fill:#306e7f;fill-opacity:1;fill-rule:nonzero;stroke:none;stroke-width:0.35277778" />
    <path
       inkscape:connector-curvature="0"
       id="path685"
       d="m 110.42201,11.436823 h 5.14835 V 7.301332 h -5.14835 z m 0,0"
       style="fill:#306e7f;fill-opacity:1;fill-rule:nonzero;stroke:none;stroke-width:0.35277778" />
    <path
       inkscape:connector-curvature="0"
       id="path687"
       d="m 118.17761,11.436823 h 5.14835 V 7.301332 h -5.14835 z m 0,0"
       style="fill:#306e7f;fill-opacity:1;fill-rule:nonzero;stroke:none;stroke-width:0.35277778" />
    <path
       inkscape:connector-curvature="0"
       id="path689"
       d="m 133.68881,11.436823 h 5.14973 V 7.301332 h -5.14973 z m 0,0"
       style="fill:#306e7f;fill-opacity:1;fill-rule:nonzero;stroke:none;stroke-width:0.35277778" />
    <path
       inkscape:connector-curvature="0"
       id="path691"
       d="m 125.93321,11.436823 h 5.14973 V 7.301332 h -5.14973 z m 0,0"
       style="fill:#306e7f;fill-opacity:1;fill-rule:nonzero;stroke:none;stroke-width:0.35277778" />
    <path
       inkscape:connector-curvature="0"
       id="path693"
       d="m 156.96387,10.130444 c 0.69729,0.830958 1.27469,1.635732 1.75562,2.39365 C 158.20962,11.0744 157.20227,8.913636 155.25648,6.546166 155.16828,6.440057 155.08147,6.336704 154.99328,6.23473 152.3502,3.1658376 148.46,1.4529356 144.40857,1.4529356 H 75.36885 V 5.037215 h 70.59139 c 4.09415,0 8.0312,1.707388 10.73492,4.781793 0.0896,0.101975 0.17914,0.205328 0.26871,0.311436"
       style="fill:#3a424c;fill-opacity:1;fill-rule:nonzero;stroke:none;stroke-width:0.35277778" />
    <path
       inkscape:connector-curvature="0"
       id="path695"
       d="M 136.63367,13.047751 H 75.36609 v 4.233333 h 71.07646 c -2.59898,-2.822222 -6.1364,-4.233333 -9.80888,-4.233333"
       style="fill:#4ab0f5;fill-opacity:1;fill-rule:nonzero;stroke:none;stroke-width:0.35277778" />
    <path
       inkscape:connector-curvature="0"
       id="path697"
       d="m 159.21697,14.460241 c 0,0 0.0951,2.820843 -11.78912,2.820843 H 75.36609 v 2.469445 h 72.06176 c 11.8842,0 11.8842,-2.692686 11.8842,-2.692686 z m 0,0"
       style="fill:#020000;fill-opacity:1;fill-rule:nonzero;stroke:none;stroke-width:0.35277778" />
    <path
       inkscape:connector-curvature="0"
       id="path699"
       d="m 14.602869,19.374323 c 0,1.457967 1.18236,2.640323 2.64033,2.640323 1.45934,0 2.6417,-1.182356 2.6417,-2.640323 0,-1.459343 -1.18236,-2.641699 -2.6417,-2.641699 -1.45797,0 -2.64033,1.182356 -2.64033,2.641699"
       style="fill:#232323;fill-opacity:1;fill-rule:nonzero;stroke:none;stroke-width:0.35277778" />
    <path
       inkscape:connector-curvature="0"
       id="path701"
       d="m 7.8118991,19.374323 c 0,1.457967 1.18236,2.640323 2.6403199,2.640323 1.45935,0 2.6417,-1.182356 2.6417,-2.640323 0,-1.459343 -1.18235,-2.641699 -2.6417,-2.641699 -1.4579599,0 -2.6403199,1.182356 -2.6403199,2.641699"
       style="fill:#232323;fill-opacity:1;fill-rule:nonzero;stroke:none;stroke-width:0.35277778" />
    <path
       inkscape:connector-curvature="0"
       id="path703"
       d="m 62.327099,19.374323 c 0,1.457967 1.18373,2.640323 2.641691,2.640323 1.45797,0 2.64033,-1.182356 2.64033,-2.640323 0,-1.459343 -1.18236,-2.641699 -2.64033,-2.641699 -1.457961,0 -2.641691,1.182356 -2.641691,2.641699"
       style="fill:#232323;fill-opacity:1;fill-rule:nonzero;stroke:none;stroke-width:0.35277778" />
    <path
       inkscape:connector-curvature="0"
       id="path705"
       d="m 55.536119,19.374323 c 0,1.457967 1.18374,2.640323 2.6417,2.640323 1.45797,0 2.64033,-1.182356 2.64033,-2.640323 0,-1.459343 -1.18236,-2.641699 -2.64033,-2.641699 -1.45796,0 -2.6417,1.182356 -2.6417,2.641699"
       style="fill:#232323;fill-opacity:1;fill-rule:nonzero;stroke:none;stroke-width:0.35277778" />
    <path
       inkscape:connector-curvature="0"
       id="path707"
       d="M 71.83832,17.281084 H 3.3994191 V 1.7588616 H 71.83832 Z m 0,0"
       style="fill:#ffffff;fill-opacity:1;fill-rule:nonzero;stroke:none;stroke-width:0.35277778" />
    <path
       inkscape:connector-curvature="0"
       id="path709"
       d="M 71.83832,6.344973 H 3.3994191 V 1.7588616 H 71.83832 Z m 0,0"
       style="fill:#f5c228;fill-opacity:1;fill-rule:nonzero;stroke:none;stroke-width:0.35277778" />
    <path
       inkscape:connector-curvature="0"
       id="path711"
       d="m 1.8546391,15.624683 1.54478,2.262738 V 3.0831576 l -1.54478,2.4666864 z m 0,0"
       style="fill:#232323;fill-opacity:1;fill-rule:nonzero;stroke:none;stroke-width:0.35277778" />
    <path
       inkscape:connector-curvature="0"
       id="path713"
       d="M 73.3831,5.344516 71.83832,3.0831576 V 17.887421 l 1.54478,-2.468065 z m 0,0"
       style="fill:#232323;fill-opacity:1;fill-rule:nonzero;stroke:none;stroke-width:0.35277778" />
    <path
       inkscape:connector-curvature="0"
       id="path715"
       d="M 71.83832,5.286639 H 3.3994191 V 1.7588616 H 71.83832 Z m 0,0"
       style="fill:#3a424c;fill-opacity:1;fill-rule:nonzero;stroke:none;stroke-width:0.35277778" />
    <path
       inkscape:connector-curvature="0"
       id="path717"
       d="M 71.83832,17.281084 H 3.3994191 V 13.400529 H 71.83832 Z m 0,0"
       style="fill:#4ab0f5;fill-opacity:1;fill-rule:nonzero;stroke:none;stroke-width:0.35277778" />
    <path
       inkscape:connector-curvature="0"
       id="path719"
       d="M 71.83832,20.103307 H 3.3994191 V 17.281084 H 71.83832 Z m 0,0"
       style="fill:#020000;fill-opacity:1;fill-rule:nonzero;stroke:none;stroke-width:0.35277778" />
    <path
       inkscape:connector-curvature="0"
       id="path721"
       d="M 8.3906791,11.625615 H 14.233559 V 7.490121 H 8.3906791 Z m 0,0"
       style="fill:#5e7d87;fill-opacity:1;fill-rule:nonzero;stroke:none;stroke-width:0.35277778" />
    <path
       inkscape:connector-curvature="0"
       id="path723"
       d="m 17.190829,11.625615 h 5.8415 V 7.490121 h -5.8415 z m 0,0"
       style="fill:#5e7d87;fill-opacity:1;fill-rule:nonzero;stroke:none;stroke-width:0.35277778" />
    <path
       inkscape:connector-curvature="0"
       id="path725"
       d="m 25.989609,11.625615 h 5.84288 V 7.490121 h -5.84288 z m 0,0"
       style="fill:#5e7d87;fill-opacity:1;fill-rule:nonzero;stroke:none;stroke-width:0.35277778" />
    <path
       inkscape:connector-curvature="0"
       id="path727"
       d="m 34.789759,11.625615 h 5.8415 V 7.490121 h -5.8415 z m 0,0"
       style="fill:#5e7d87;fill-opacity:1;fill-rule:nonzero;stroke:none;stroke-width:0.35277778" />
    <path
       inkscape:connector-curvature="0"
       id="path729"
       d="m 43.589909,11.625615 h 5.8415 V 7.490121 h -5.8415 z m 0,0"
       style="fill:#5e7d87;fill-opacity:1;fill-rule:nonzero;stroke:none;stroke-width:0.35277778" />
    <path
       inkscape:connector-curvature="0"
       id="path731"
       d="M 61.188839,11.625615 H 67.03034 V 7.490121 h -5.841501 z m 0,0"
       style="fill:#5e7d87;fill-opacity:1;fill-rule:nonzero;stroke:none;stroke-width:0.35277778" />
    <path
       inkscape:connector-curvature="0"
       id="path733"
       d="m 52.388679,11.625615 h 5.84289 V 7.490121 h -5.84289 z m 0,0"
       style="fill:#5e7d87;fill-opacity:1;fill-rule:nonzero;stroke:none;stroke-width:0.35277778" />
    <path
       inkscape:connector-curvature="0"
       id="path735"
       d="M 150.64557,3.1699726 H 75.36609 v -1.763889 h 69.04248 c 2.18281,0 4.31739,0.352778 6.237,1.763889"
       style="fill:#000000;fill-opacity:1;fill-rule:nonzero;stroke:none;stroke-width:0.35277778" />
    <path
       inkscape:connector-curvature="0"
       id="path737"
       d="m 158.70985,12.342195 c -0.50988,-1.411111 -1.51722,-3.487815 -3.46301,-5.853906 -0.93845,-1.141018 -1.90996,-1.907205 -2.83187,-2.6127614 h -8.96276 V 7.80845 c 0,2.604492 2.21037,4.533745 4.81486,4.533745 z m 0,0"
       style="fill:#306e7f;fill-opacity:1;fill-rule:nonzero;stroke:none;stroke-width:0.35277778" />
    <path
       inkscape:connector-curvature="0"
       id="path739"
       d="m 151.76591,15.872728 h -4.80935 V 8.515382 h 4.80935 z m 0,0"
       style="fill:none;stroke:#2e333d;stroke-width:0.35277778;stroke-linecap:butt;stroke-linejoin:miter;stroke-miterlimit:10;stroke-opacity:1" />
    <path
       inkscape:connector-curvature="0"
       id="path741"
       d="M 136.25609,14.106084 H 81.363318 v -1.058333 h 55.270352 c 3.67248,0 7.2099,1.411111 9.80888,4.233333 h -1.44694 c -2.4598,-2.116666 -5.54798,-3.175 -8.73952,-3.175"
       style="fill:#f5c228;fill-opacity:1;fill-rule:nonzero;stroke:none;stroke-width:0.35277778" />
    <path
       inkscape:connector-curvature="0"
       id="path743"
       d="M 81.499738,15.810717 H 75.36885 V 5.992195 h 6.130888 z m 0,0"
       style="fill:#4ab0f5;fill-opacity:1;fill-rule:nonzero;stroke:none;stroke-width:0.35277778" />
    <path
       inkscape:connector-curvature="0"
       id="path745"
       d="m 147.42785,17.281084 c 11.8842,0 11.78912,-2.820843 11.78912,-2.820843 l 0.0427,1.034906 c -0.54433,0.77308 -2.74643,2.138715 -11.64167,2.138715 H 75.36607 v -0.352778 z m 0,0"
       style="fill:#f5c228;fill-opacity:1;fill-rule:nonzero;stroke:none;stroke-width:0.35277778" />
    <path
       inkscape:connector-curvature="0"
       id="path747"
       d="M 71.83832,3.1699726 H 3.3994191 V 1.7588616 H 71.83832 Z m 0,0"
       style="fill:#000000;fill-opacity:1;fill-rule:nonzero;stroke:none;stroke-width:0.35277778" />
    <path
       inkscape:connector-curvature="0"
       id="path749"
       d="M 71.83832,14.106084 H 3.3994191 V 13.400529 H 71.83832 Z m 0,0"
       style="fill:#f5c228;fill-opacity:1;fill-rule:nonzero;stroke:none;stroke-width:0.35277778" />
  </g>
</svg>
