/!! Start of file                                                               
/!! Content type:  TAP                                                          
/!! Sequence:      017                                                          
/!! Records:       665                                                          
/!! Generated:     07/11/2018                                                   
/!! Exporter:      RJIS RjEhrFrs v 4.6.5                                        
0AWSV0SN31122999310520172000000011800
0AXSV0SN31122999310520172000000011800
0AYSV0SN31122999310520172000000011800
0AZSV0SN31122999310520172000000011800
1ABAR0EM31122999030620172000000012359
1ABAS0EM31122999030620172000000012359
1AF  2TP31122999290720172000000012359
1AS  2  31122999030620172000000012359
1BBAR0EM31122999030620172000000012359
1BBAS0EM31122999030620172000000012359
1BF  2TP31122999290720172000000012359
1BS  2  31122999030620172000000012359
1CBAR0EM31122999030620172000000012359
1CBAS0EM31122999030620172000000012359
1CF  2TP31122999290720172000000012359
1CS  2  31122999030620172000000012359
1DBAS0EM31122999030620172000000012359
1DF  2TP31122999290720172000000012359
1DS  2  31122999030620172000000012359
1EF  2TP31122999290720172000000012359
1ES  2  31122999030620172000000012359
1FF  2TP31122999290720172000000011800
1FS  2EM31122999030620172000000012359
1G0U70CS31122999131020172000000012359
1G1U70CS31122999131020172000000012359
1G2U70CS31122999131020172000000012359
1G3U70CS31122999131020172000000012359
1G4U70CS31122999131020172000000012359
1G8U70CS31122999250820182000000012359
1G9U70CS31122999250820182000000012359
1GAU70CS31122999310520182000000012359
1GBU70CS31122999131020172000000012359
1GF  2TP31122999290720172000000011800
1GSAR0EM31122999030620172000000012359
1GSAS0EM31122999030620172000000012359
1HF  2TP31122999290720172000000011800
1HSAR0EM31122999030620172000000012359
1HSAS0EM31122999030620172000000012359
1JSAS0EM31122999030620172000000012359
1LF  2TP31122999290720172000000012359
1T0U60CS31122999131020172000000012359
1T1U60CS31122999131020172000000012359
1T2U60CS31122999131020172000000012359
1T3U60CS31122999131020172000000012359
1T4U60CS31122999131020172000000012359
1T8U60CS31122999070620182000000012359
1T9U60CS31122999070620182000000012359
1VF  2VT31122999181120172000000012359
2AACA0CH31122999080320182000000012359
2AF  2TP31122999290720172000000012359
2AS  2  31122999030620172000000012359
2BF  2TP31122999290720172000000012359
2BS  2  31122999030620172000000012359
2CCCA0CH31122999310520172000000012359
2CF  2TP31122999290720172000000012359
2CS  2  31122999030620172000000012359
2DCCA0CH31122999310520172000000012359
2DF  2TP31122999290720172000000012359
2DS  2  31122999030620172000000012359
2ECCA0CH31122999310520172000000012359
2EF  2TP31122999290720172000000012359
2ES  2  31122999030620172000000012359
2FBAR0  31122999030620172000000012359
2FBAS0EM31122999030620172000000012359
2FCCA0CH31122999310520172000000012359
2FF  2TP31122999290720172000000012359
2FIAR0EM31122999030620172000000012359
2FIAS0EM31122999030620172000000012359
2FS  2  31122999030620172000000012359
2G0U70CS31122999310820182000000012359
2G1U70CS31122999310820182000000012359
2G2U70CS31122999310820182000000012359
2G3U70CS31122999310820182000000012359
2G4U70CS31122999310820182000000012359
2G8U70CS31122999310820182000000012359
2G9U70CS31122999310820182000000012359
2GBAR0EM31122999030620172000000012359
2GBAS0EM31122999030620172000000012359
2GCCA0CH31122999310520172000000012359
2GF  2TP31122999290720172000000012359
2GIAR0EM31122999030620172000000012359
2GIAS0EM31122999030620172000000012359
2GS  2  31122999030620172000000012359
2HCCA0CH31122999310520172000000012359
2HF  2TP31122999290720172000000012359
2HS  2  31122999030620172000000012359
2IAAR0EM31122999030620172000000012359
2IAAS0EM31122999030620172000000012359
2IBAR0EM31122999030620172000000012359
2IBAS0EM31122999030620172000000012359
2ICAR0EM31122999030620172000000012359
2ICAS0EM31122999030620172000000012359
2IDAR0EM31122999030620172000000012359
2IDAS0EM31122999030620172000000012359
2IEAR0EM31122999030620172000000012359
2IEAS0EM31122999030620172000000012359
2IFAR0EM31122999030620172000000012359
2IFAS0EM31122999030620172000000012359
2IGAR0EM31122999030620172000000012359
2IGAS0EM31122999030620172000000012359
2IHAR0EM31122999030620172000000012359
2IHAS0EM31122999030620172000000012359
2IIAR0EM31122999030620172000000012359
2IIAS0EM31122999030620172000000012359
2IJAR0EM31122999030620172000000012359
2IJAS0EM31122999030620172000000012359
2IS  2  31122999030620172000000012359
2JCCA0CH31122999310520172000000012359
2JS  2EM31122999030620172000000012359
2KCCA0CH31122999310520172000000012359
2LCCA0CH31122999310520172000000012359
2MCCA0CH31122999310520172000000012359
2MF  2TP31122999290720172000000012359
2NF  2TP31122999020120182000000012359
2SA6E0AW31122999260320132000000011800
2SA6F0AW31122999260320132000000011800
2SO6E0AW31122999260320132000000011800
2SO6F0AW31122999260320132000000011800
2T0U60CS31122999131020172000000012359
2T1U60CS31122999131020172000000012359
2T2U60CS31122999131020172000000012359
2T3U60CS31122999131020172000000012359
2T4U60CS31122999131020172000000012359
2T8U60CS31122999070620182000000012359
2T9U60CS31122999070620182000000012359
3PFN90GR31122999180620182000000012359
3PSN90GR31122999180620182000000012359
6F1  2VT31122999060620182000000012359
6F2  2VT31122999060620182000000012359
A18U60CS31122999070620182000000012359
A19U60CS31122999070620182000000012359
A20U60CS31122999020120182000000012359
A21U60CS31122999020120182000000012359
A22U60CS31122999020120182000000012359
A23U60CS31122999020120182000000012359
A24U60CS31122999020120182000000012359
A40U60CS31122999131020172000000012359
A41U60CS31122999131020172000000012359
A42U60CS31122999131020172000000012359
A43U60CS31122999131020172000000012359
A44U60CS31122999131020172000000012359
A60U60CS31122999131020172000000012359
A61U60CS31122999131020172000000012359
A62U60CS31122999131020172000000012359
A63U60CS31122999131020172000000012359
A64U60CS31122999131020172000000012359
AA1  2TP31122999290720172000000012359
AB1  2TP31122999290720172000000012359
AD1  2TP31122999290720172000000012359
AE1  2TP31122999290720172000000012359
AF1  2TP31122999290720172000000012359
AG1  2TP31122999290720172000000011800
AG2  2TP31122999290720172000000012359
AH1  2TP31122999290720172000000011800
AH2  2TP31122999290720172000000012359
AI1  2TP31122999290720172000000011800
AI2  2TP31122999290720172000000012359
AJ2  2TP31122999290720172000000012359
AK2  2TP31122999290720172000000012359
AL2  2TP31122999290720172000000011800
AN2  2TP31122999290720172000000011800
AO2  2TP31122999290720172000000011800
AP2  2TP31122999020120182000000012359
ASV  2  31122999230520172000000011800
AVK  2GW31122999301220172000000011800
AVL  2GW31122999301220172000000011800
AVM  2GW31122999220520182000000011800
AVN  2GW31122999220520182000000011800
AVO  2GW31122999220520182000000011800
AVP  2GW31122999220520182000000011800
AW1AE0AW31122999110420122000000011800
AX0U60CS31122999020120182000000012359
AX1U60CS31122999020120182000000012359
AX2U60CS31122999020120182000000012359
AX3U60CS31122999020120182000000012359
AX4U60CS31122999020120182000000012359
AX8U60CS31122999070620182000000012359
AX9U60CS31122999070620182000000012359
AXS  2  3112299909062017200000007    
AXS  2CS3112299909062017200000002    
AXS  2SR3112299909062017200000002    
BRR  2  3112299904062017200000007    
C1XCA0CH31122999270120152000000012359
C2XCA0CH31122999270120152000000012359
C3XCA0CH31122999270120152000000012359
C3YCA0CH31122999270120152000000012359
C4BCA0CH31122999270120152000000012359
C4XCA0CH31122999270120152000000012359
C4YCA0CH31122999270120152000000012359
C5BCA0CH31122999270120152000000012359
C5XCA0CH31122999270120152000000012359
C5YCA0CH31122999270120152000000012359
C6BCA0CH31122999270120152000000012359
C6YCA0CH31122999270120152000000012359
C6ZCA0CH31122999270120152000000012359
C7BCA0CH31122999270120152000000012359
C7ZCA0CH31122999270120152000000012359
C8BCA0CH31122999270120152000000012359
C8ZCA0CH31122999270120152000000012359
CH1  2GW31122999011120152000000011900
CH2  2GW31122999011120152000000011900
CL1  2GW31122999011120152000000011900
CL2  2GW31122999011120152000000011900
CM1  2GW31122999011120152000000011900
CM2  2GW31122999011120152000000011900
CNM  2XC31122999030620172000000012359
CPF  2EM31122999010620172000000012359
CPS  2EM31122999010620172000000012359
DAS  2GW31122999030620172000000011800
DBS  2GW31122999030620172000000011800
DCS  2GW31122999030620172000000011800
DDS  2GW31122999030620172000000011800
DES  2GW31122999030620172000000011800
DF1NT0NT31122999200920182000000012359
DF2NT0NT31122999200920182000000012359
DF3NT0NT31122999200920182000000012359
DF4NT0NT31122999100420182000000012359
DF5NT0NT31122999100420182000000012359
DF6NT0NT31122999100420182000000012359
DFS  2GW31122999030620172000000011800
DG0NT0NT31122999100420182000000012359
DG1NT0NT31122999100420182000000012359
DG2NT0NT31122999100420182000000012359
DG3NT0NT31122999100420182000000012359
DG4NT0NT31122999100420182000000012359
DG5NT0NT31122999100420182000000012359
DG6NT0NT31122999100420182000000012359
DG7NT0NT31122999100420182000000012359
DG8NT0NT31122999100420182000000012359
DGS  2GW31122999030620172000000011800
DHS  2GW31122999030620172000000011800
DJS  2GW31122999030620172000000011800
DKS  2GW31122999030620172000000011800
DLS  2GW31122999030620172000000011800
E18U70CS31122999070620182000000012359
E19U70CS31122999070620182000000012359
E20U70CS31122999020120182000000012359
E21U70CS31122999020120182000000012359
E22U70CS31122999020120182000000012359
E23U70CS31122999020120182000000012359
E24U70CS31122999020120182000000012359
E40U70CS31122999131020172000000012359
E41U70CS31122999131020172000000012359
E42U70CS31122999131020172000000012359
E43U70CS31122999131020172000000012359
E44U70CS31122999131020172000000012359
E60U70CS31122999131020172000000012359
E61U70CS31122999131020172000000012359
E62U70CS31122999131020172000000012359
E63U70CS31122999131020172000000012359
E64U70CS31122999131020172000000012359
EAR  2  3112299917042012200000007    
EAS  2  3112299917042012200000007    
EGJX80  31122999190920182000000012359
EM0  2EM31122999170120142000000012359
EM2  2EM31122999061120132000000012359
EM3  2EM31122999061120132000000012359
EM4  2EM31122999061120132000000012359
EM5  2EM31122999061120132000000012359
EM6  2EM31122999061120132000000012359
EMB  2EM31122999010620172000000012359
EMD  2EM31122999030920172000000012359
EME  2EM31122999010620172000000011800
EX0U70CS31122999020120182000000012359
EX1U70CS31122999020120182000000012359
EX2U70CS31122999020120182000000012359
EX3U70CS31122999020120182000000012359
EX4U70CS31122999020120182000000012359
EX8U70CS31122999070620182000000012359
EX9U70CS31122999070620182000000012359
F1ASW0SW31122999250520172000000012359
F2ASW0SW31122999250520172000000012359
F3ASW0SW31122999250520172000000012359
F4ASW0SW31122999250520172000000012359
F5ASW0SW31122999250520172000000012359
F6ASW0SW31122999250520172000000012359
F7ASW0SW31122999250520172000000012359
F8ASW0SW31122999250520172000000012359
F9ASW0SW31122999250520172000000012359
FAVSV0SN31122999310520172000000011800
FB0U70CS31122999310520172000000012359
FB1U70CS31122999310520172000000012359
FB2U70CS31122999310520172000000012359
FB3U70CS31122999310520172000000012359
FB4U70CS31122999310520172000000012359
FS0U50CS31122999310520172000000012359
FS1U50CS31122999310520172000000012359
FS2U50CS31122999310520172000000012359
FS3U50CS31122999310520172000000012359
FS4U50CS31122999310520172000000012359
FXR  2  3112299921102014200000007    
FXR  2CS3112299921102014200000002    
FXR  2SR3112299921102014200000002    
FXS  2  3112299923052017200000007    
FXS  2CS3112299923052017200000002    
FXS  2SR3112299923052017200000002    
FZPVA0AW31122999011120172000000012359
FZPVA0VT31122999011120172000000012359
GA1  2LE31122999211120172000000012359
GA2SV0SN31122999310520172000000011800
GA5SV0SN31122999310520172000000011800
GAXSV0SN31122999310520172000000011800
GCAHC0GC31122999020620172000000011800
GCBHC0GC31122999020620172000000011800
GCEHC0GC31122999170520132000000011800
GCHHC0GC31122999170420122000000011800
GCIHC0GC31122999170420122000000011800
GCJHC0GC31122999170520132000000011800
GF3AS0EM31122999020120182000000012359
GF4AS0EM31122999020120182000000012359
GF5AS0EM31122999020120182000000012359
GO3  2EM31122999010620172000000072359
GO5  2EM31122999010620172000000072359
GP1  2EM31122999010620172000000012359
GP2  2EM31122999010620172000000012359
GP3  2EM31122999010620172000000072359
GP5  2EM31122999010620172000000072359
GPAHC0GC31122999260320142000000012359
GPAXV0XC31122999260320142000000012359
GPBHC0GC31122999260320142000000012359
GPBXV0XC31122999260320142000000012359
GPCHC0GC31122999260320142000000012359
GPCXV0XC31122999260320142000000012359
GPDHC0GC31122999260320142000000012359
GPDXV0XC31122999260320142000000012359
GPEHC0GC31122999260320142000000012359
GPEXV0XC31122999260320142000000012359
GPFHC0GC31122999260320142000000012359
GPFXV0XC31122999260320142000000012359
GT3  2EM31122999201020152000000072359
GT5  2EM31122999300420152000000072359
HER  2GW3112299917042012200000007    
HF2HY0HT31122999210620142000000011800
HF3HY0HT31122999210620142000000011800
HF4HY0HT31122999210620142000000011800
HPA  2HT31122999170420122000000011800
HT1  2HT31122999110420122000000011800
HT2  2HT31122999170420122000000011800
HT4HU0HT31122999291120122000000011800
HTA  2HT31122999170420122000000011800
HTSHT0HT31122999170420122000000011800
HTTHU0HT31122999291120122000000011800
HV0  2  31122999150920172000000012359
HV1  2  31122999150920172000000012359
HV2  2  31122999150920172000000012359
HV3  2  31122999150920172000000012359
HV4  2  31122999150920172000000012359
HV5  2  31122999150920172000000012359
HX9  2  31122999150920172000000012359
I1AAR0EM31122999030620172000000012359
I1AAS0EM31122999030620172000000012359
I1BAR0EM31122999030620172000000012359
I1BAS0EM31122999030620172000000012359
I1CAR0EM31122999030620172000000012359
I1CAS0EM31122999030620172000000012359
I1DAR0EM31122999030620172000000012359
I1DAS0EM31122999030620172000000012359
I1EAR0EM31122999030620172000000012359
I1EAS0EM31122999030620172000000012359
I1FAR0EM31122999030620172000000012359
I1FAS0EM31122999030620172000000012359
I1GAR0EM31122999030620172000000012359
I1GAS0EM31122999030620172000000012359
I1HAS0EM31122999030620172000000012359
I1IAR0EM31122999030620172000000012359
I1IAS0EM31122999030620172000000012359
IABAR0EM31122999030620172000000012359
IABAS0EM31122999030620172000000012359
IBBAR0EM31122999030620172000000012359
IBBAS0EM31122999030620172000000012359
ICBAR0EM31122999030620172000000012359
ICBAS0EM31122999030620172000000012359
IF1GA0GR31122999180620182000000012359
IF3GA0GR31122999180620182000000012359
IS0GA0GR31122999180620182000000012359
IS1GA0GR31122999180620182000000012359
IS3GA0GR31122999180620182000000012359
JASXV0XC31122999030620172000000012359
JBSXV0XC31122999030620172000000012359
JCSXV0XC31122999030620172000000012359
JDSXV0XC31122999030620172000000012359
JESXV0XC31122999030620172000000012359
JFSXV0XC31122999030620172000000012359
JGSXV0XC31122999030620172000000012359
JHSXV0XC31122999030620172000000012359
LA1  2LE31122999250520172000000012359
LA2  2LE31122999250520172000000012359
LVRHT0HT31122999181020142000000011600
MAFXV0XC31122999030620172000000012359
MASXV0XC31122999030620172000000012359
MBFXV0XC31122999030620172000000012359
MBSXV0XC31122999030620172000000012359
MCFXV0XC31122999030620172000000012359
MCSXV0XC31122999030620172000000012359
MDFXV0XC31122999030620172000000012359
MDSXV0XC31122999030620172000000012359
MEFXV0XC31122999030620172000000012359
MESXV0XC31122999030620172000000012359
MFFXV0XC31122999030620172000000012359
MFSXV0XC31122999030620172000000012359
MGFXV0XC31122999030620172000000012359
MGSXV0XC31122999030620172000000012359
MHSXV0XC31122999030620172000000012359
MXR  2  3112299909062017200000007    
NBA  2  31122999201020152000000011800
NCA  2  31122999201020152000000011800
NDA  2  31122999201020152000000011800
NEA  2  31122999201020152000000011800
NW0  2SW31122999180420182000000012359
NW1  2SW31122999180420182000000012359
NW2  2SW31122999180420182000000012359
NW3  2SW31122999180420182000000012359
NW4  2SW31122999180420182000000012359
NW5  2SW31122999180420182000000012359
NW6  2SW31122999180420182000000012359
NW8  2SW31122999180420182000000012359
NW9  2SW31122999180420182000000012359
NXPN90GR31122999180620182000000012359
OF1  2LE31122999250520172000000012359
OF2  2LE31122999250520172000000012359
OF3  2LE31122999250520172000000012359
OF4  2LE31122999250520172000000012359
OF5  2LE31122999250520172000000012359
OF6  2LE31122999250520172000000012359
OFL  2LE31122999010620182000000012359
OS1  2LE31122999250520172000000012359
OS2  2LE31122999250520172000000012359
OS3  2LE31122999250520172000000012359
OS4  2LE31122999250520172000000012359
OS5  2LE31122999250520172000000012359
OS6  2LE31122999250520172000000012359
OSB  2LE31122999260520172000000011800
OSL  2LE31122999010620182000000012359
S1ASW0SW31122999260520172000000012359
S2ASW0SW31122999260520172000000012359
S3ASW0SW31122999260520172000000012359
S4ASW0SW31122999260520172000000012359
S5ASW0SW31122999260520172000000012359
S6ASW0SW31122999260520172000000012359
S7ASW0SW31122999260520172000000012359
S8ASW0SW31122999260520172000000012359
S9ASW0SW31122999260520172000000012359
SAB  2GW31122999030620172000000012359
SAC  2GW31122999030620172000000012359
SAD  2GW31122999030620172000000012359
SAG  2GW31122999030620172000000011800
SAH  2GW31122999030620172000000011800
SAI  2GW31122999030620172000000011800
SAJ  2GW31122999030620172000000011800
SAK  2GW31122999030620172000000011800
SAL  2GW31122999030620172000000011800
SAM  2GW31122999030620172000000011800
SAN  2GW31122999030620172000000011800
SAO  2GW31122999030620172000000011800
SAP  2GW31122999030620172000000011800
SAQ  2GW31122999030620172000000011800
SAR  2GW31122999030620172000000011800
SAS  2  31122999230520172000000011830
SAVSV0SN31122999310520172000000011800
SB0U60CS31122999310520172000000012359
SB1U60CS31122999310520172000000012359
SB2U60CS31122999310520172000000012359
SB3U60CS31122999310520172000000012359
SB4U60CS31122999310520172000000012359
SBVSV0SN31122999310520172000000011800
SCVSV0SN31122999020620172000000011800
SDV  2SN31122999310520172000000011800
SEESA0SE31122999050620172000000011800
SEFSA0SE31122999050620172000000011800
SGASJ0AW31122999291120122000000011800
SH0U60CS31122999030920172000000012359
SH1U60CS31122999030920172000000012359
SH2U60CS31122999030920172000000012359
SH3U60CS31122999030920172000000012359
SH4U60CS31122999030920172000000012359
SL1  2LE31122999260520172000000142359
SL1  2QS31122999260520172000000142359
SL2  2LE31122999260520172000000072359
SL2  2QS31122999260520172000000072359
SL3  2LE31122999260520172000000032359
SL3  2QS31122999260520172000000032359
SL4  2LE31122999031020182000000012359
SL4  2QS31122999031020182000000012359
SLA  2AW31122999170420122000000011800
SQF  2CS31122999050620172000000011800
SQF  2SR31122999050620172000000011800
TAF  2  31122999180820182000000012359
TFH  2TP31122999090620172000000012359
TFL  2TP31122999090620172000000012359
TP1  2TP31122999290720172000000012359
TP2  2TP31122999310820172000000012359
TP3  2TP31122999290720172000000012359
TP4  2TP31122999310820172000000012359
TSH  2TP31122999090620172000000012359
TSL  2TP31122999090620172000000012359
TVS  2VT31122999040620172000000012359
UFAHN0HT31122999270320132000000011800
UFAHT0HT31122999270320132000000011800
UFBHN0HT31122999270320132000000011800
UFBHT0HT31122999270320132000000011800
UFCHN0HT31122999270320132000000011800
UFCHT0HT31122999270320132000000011800
UFDHN0HT31122999270320132000000011800
UFDHT0HT31122999270320132000000011800
UFEHN0HT31122999270320132000000011800
UFEHT0HT31122999270320132000000011800
UFFHN0HT31122999270320132000000011800
UFFHT0HT31122999270320132000000011800
UFGHN0HT31122999270320132000000011800
UFGHT0HT31122999270320132000000011800
UFHHT0HT31122999290720132000000011800
UFIHT0HT31122999290720132000000011800
USAHN0HT31122999270320132000000011800
USAHT0HT31122999270320132000000011800
USBHN0HT31122999270320132000000011800
USBHT0HT31122999270320132000000011800
USCHN0HT31122999270320132000000011800
USCHT0HT31122999270320132000000011800
USDHN0HT31122999270320132000000011800
USDHT0HT31122999270320132000000011800
USEHN0HT31122999270320132000000011800
USEHT0HT31122999270320132000000011800
USFHN0HT31122999270320132000000011800
USFHT0HT31122999270320132000000011800
USGHN0HT31122999270320132000000011800
USGHT0HT31122999270320132000000011800
USHHT0HT31122999290720132000000011800
USIHT0HT31122999290720132000000011800
USJHN0HT31122999140920172000000011800
USJHT0HT31122999140920172000000011800
USKHN0HT31122999190920172000000011800
USKHT0HT31122999190920172000000011800
USW  2HT31122999060620162000000011800
USX  2HT31122999060620162000000011800
USY  2HT31122999060620162000000011800
USZ  2HT31122999060620162000000011800
VA1  2CS31122999050620172000000011800
VA1  2SR31122999050620172000000011800
VA1U30CS3112299905062017100000048    
VA1U30SR3112299905062017100000048    
VA1U40CS3112299905062017100000048    
VA1U40SR3112299905062017100000048    
VA2  2CS31122999050620172000000011800
VA2  2SR31122999050620172000000011800
VA2U30CS3112299905062017100000048    
VA2U30SR3112299905062017100000048    
VA2U40CS3112299905062017100000048    
VA2U40SR3112299905062017100000048    
VA3  2CS31122999050620172000000011800
VA3  2SR31122999050620172000000011800
VA4  2CS31122999050620172000000011800
VA4  2SR31122999050620172000000011800
VA5  2CS31122999050620172000000011800
VA5  2SR31122999050620172000000011800
VA6  2CS31122999050620172000000011800
VA6  2SR31122999050620172000000011800
VA7  2CS31122999190920182000000011800
VA7  2SR31122999190920182000000011800
VA7U30CS3112299919092018100000048    
VA7U30SR3112299919092018100000048    
VA7U40CS3112299919092018100000048    
VA7U40SR3112299919092018100000048    
VA8  2CS31122999190920182000000011800
VA8  2SR31122999190920182000000011800
VF1  2GR31122999180620182000000072359
VF2  2GR31122999180620182000000072359
VF3  2GR31122999180620182000000072359
VF4  2GR31122999180620182000000072359
VF5  2GR31122999180620182000000072359
VF6  2GR31122999180620182000000072359
VF7  2GR31122999180620182000000072359
VF8  2GR31122999180620182000000072359
VFPVR0AW3112299904062017200000001    
VFPVR0VT3112299904062017200000001    
VIFVA0VT31122999291020132000000012359
VISVR0VT31122999291020132000000012359
VJFVA0VT31122999291120132000000012359
VJSVR0VT31122999291120132000000012359
VKFVA0VT31122999031220132000000012359
VKSVR0VT31122999031220132000000012359
VVF  2VT31122999270120152000000012359
VW1  2VT31122999270120152000000012359
VZP  2XC3112299901112017200000001    
VZPVR0AW3112299901112017200000001    
VZPVR0VT3112299901112017200000001    
W1A  2GW31122999030620172000000011800
W1C  2GW31122999030620172000000011800
W1E  2GW31122999030620172000000011800
W1G  2GW31122999030620172000000011800
W1H  2GW31122999030620172000000011800
W1J  2GW31122999030620172000000011800
W1L  2GW31122999030620172000000011800
W1N  2GW31122999030620172000000011800
W1O  2GW31122999030620172000000011800
W1P  2GW31122999030620172000000011800
W1Q  2GW31122999030620172000000011800
W1R  2GW31122999030620172000000011800
W1S  2GW31122999030620172000000011800
W1T  2GW31122999030620172000000011800
W1Z  2GW31122999050920172000000011800
W2A  2GW31122999030620172000000011800
W2B  2GW31122999030620172000000011800
W2C  2GW31122999030620172000000011800
W2D  2GW31122999030620172000000011800
W2E  2GW31122999030620172000000011800
W2F  2GW31122999030620172000000011800
W2G  2GW31122999030620172000000011800
W2H  2GW31122999030620172000000011800
W2I  2GW31122999030620172000000011800
W2J  2GW31122999030620172000000011800
W2K  2GW31122999030620172000000011800
W2L  2GW31122999030620172000000011800
W2M  2GW31122999030620172000000011800
W2N  2GW31122999030620172000000011800
W2O  2GW31122999030620172000000011800
W2P  2GW31122999030620172000000011800
W2Q  2GW31122999030620172000000011800
W2R  2GW31122999030620172000000011800
W2S  2GW31122999030620172000000011800
W2T  2GW31122999030620172000000011800
W2Z  2GW31122999050920172000000011800
WAS  2GW31122999030620172000000011800
WBS  2GW31122999030620172000000011800
WC1VC0VT31122999040620172000000022359
WC2VC0VT31122999270220182000000022359
WC3VC0VT31122999270220182000000022359
WC4VC0VT31122999060920172000000022359
WC5VC0VT31122999060920172000000022359
WC6VC0VT31122999050720182000000022359
WC7VC0VT31122999270220182000000022359
WC8VC0VT31122999270220182000000022359
WCCVC0VT31122999270220182000000022359
WCS  2GW31122999030620172000000011800
WDS  2GW31122999030620172000000011800
WDTVY0VT31122999040620172000000011800
WES  2  31122999030620172000000011800
WFS  2GW31122999030620172000000011800
WGS  2GW31122999030620172000000011800
WHS  2GW31122999030620172000000011800
WJS  2GW31122999030620172000000011800
WKS  2GW31122999030620172000000011800
WLS  2GW31122999030620172000000011800
XAFXV0XC31122999030620172000000012359
XBFXV0XC31122999030620172000000012359
XC1BR0GR31122999020620172000000012359
XC3XR0XC31122999030620172000000072359
XC4XR0XC31122999030620172000000072359
XC5XR0XC31122999030620172000000072359
XC6XR0XC31122999030620172000000072359
XC7XR0XC31122999030620172000000072359
XC8XR0XC31122999030620172000000072359
XC9XR0XC31122999030620172000000072359
XCFXV0XC31122999030620172000000012359
XDFXV0XC31122999030620172000000012359
XEFXV0XC31122999030620172000000012359
XFFXV0XC31122999030620172000000012359
XGFXV0XC31122999030620172000000012359
XLFGE0GR31122999180620182000000072359
XS1ET0GR31122999020620172000000012359
XS2ET0GR31122999020620172000000012359
XS3EY0GR01012019180620182000000012359
XS3EY0GR31122999020120192000000012359
XS5ET0GR31122999020620172000000012359
XS6ET0GR31122999020620172000000012359
XS8EZ0GR31122999020620172000000012359
/!! End of file (07/11/2018)